module gitlab.com/pcpratheesh/golang-prometheus-example

go 1.18

require (
	github.com/gorilla/mux v1.8.0
	github.com/prometheus/client_golang v1.12.1
)

require (
	github.com/beorn7/perks v1.0.1 // indirect
	github.com/cespare/xxhash/v2 v2.1.2 // indirect
	github.com/golang/protobuf v1.5.2 // indirect
	github.com/matttproud/golang_protobuf_extensions v1.0.1 // indirect
	github.com/prometheus/client_model v0.2.0 // indirect
	github.com/prometheus/common v0.32.1 // indirect
	github.com/prometheus/procfs v0.7.3 // indirect
	golang.org/x/sys v0.0.0-20220227234510-4e6760a101f9 // indirect
	google.golang.org/protobuf v1.26.0 // indirect
)
